{"failedCount":0,"prefixedPath":"src\/test\/java\/apitesting\/query_parameter.feature","packageQualifiedName":"src.test.java.apitesting.query_parameter","loopIndex":-1,"relativePath":"src\/test\/java\/apitesting\/query_parameter.feature","scenarioResults":[{"sectionIndex":0,"stepResults":[{"result":{"nanos":64088700,"millis":64.0887,"status":"passed"},"step":{"line":3,"prefix":"*","index":0,"text":"def query = {status:'active', gender:'female'}"}},{"result":{"nanos":88993700,"millis":88.9937,"status":"passed"},"step":{"line":4,"prefix":"Given","index":1,"text":"url \"https:\/\/gorest.co.in\/public\/v1\/users\""}},{"result":{"nanos":30962900,"millis":30.9629,"status":"passed"},"step":{"line":5,"prefix":"And","index":2,"text":"params query"}},{"result":{"nanos":1638731500,"millis":1638.7315,"status":"passed"},"step":{"line":6,"prefix":"When","index":3,"text":"method GET"},"stepLog":"14:39:23.987 request:\n1 > GET https:\/\/gorest.co.in\/public\/v1\/users?gender=female&status=active\n1 > Host: gorest.co.in\n1 > Connection: Keep-Alive\n1 > User-Agent: Apache-HttpClient\/4.5.12 (Java\/17.0.9)\n1 > Accept-Encoding: gzip,deflate\n\n\n14:39:25.360 response time in milliseconds: 1369\n1 < 200\n1 < Date: Thu, 01 Feb 2024 09:09:22 GMT\n1 < Content-Type: application\/json; charset=utf-8\n1 < Transfer-Encoding: chunked\n1 < Connection: keep-alive\n1 < Cache-Control: max-age=0, private, must-revalidate\n1 < etag: W\/\"94787e4332c16884acfa4bf84c5456f6\"\n1 < referrer-policy: strict-origin-when-cross-origin\n1 < vary: Origin\n1 < x-content-type-options: nosniff\n1 < x-download-options: noopen\n1 < x-frame-options: SAMEORIGIN\n1 < x-permitted-cross-domain-policies: none\n1 < x-request-id: c1e7bbbc-2abe-42ad-a22b-f48a12d287bc\n1 < x-runtime: 0.073007\n1 < x-xss-protection: 0\n1 < CF-Cache-Status: DYNAMIC\n1 < Report-To: {\"endpoints\":[{\"url\":\"https:\\\/\\\/a.nel.cloudflare.com\\\/report\\\/v3?s=pEEbuZAAH5%2BUj1KJlbskuiaTzNIsjKbaJ2zv70qsHjtMVasI5sM4lyfa55E8xrKRVKxmt10UGE7nKfFd3ttdT2V6slMz6swb1LIkYUJW4lJr4X7K4ofjWF5k%2FHXsaS0%3D\"}],\"group\":\"cf-nel\",\"max_age\":604800}\n1 < NEL: {\"success_fraction\":0,\"report_to\":\"cf-nel\",\"max_age\":604800}\n1 < Server: cloudflare\n1 < CF-RAY: 84e90e2028310d82-MRS\n1 < alt-svc: h3=\":443\"; ma=86400\n{\"meta\":{\"pagination\":{\"total\":701,\"pages\":71,\"page\":1,\"limit\":10,\"links\":{\"previous\":null,\"current\":\"https:\/\/gorest.co.in\/public\/v1\/users?page=1\",\"next\":\"https:\/\/gorest.co.in\/public\/v1\/users?page=2\"}}},\"data\":[{\"id\":6129714,\"name\":\"Darshwana Adiga\",\"email\":\"darshwana_adiga@walsh-blanda.test\",\"gender\":\"female\",\"status\":\"active\"},{\"id\":6129479,\"name\":\"Gorakhanatha Nehru\",\"email\":\"nehru_gorakhanatha@welch.test\",\"gender\":\"female\",\"status\":\"active\"},{\"id\":6129473,\"name\":\"Kumuda Bandopadhyay\",\"email\":\"bandopadhyay_kumuda@rice.example\",\"gender\":\"female\",\"status\":\"active\"},{\"id\":6129472,\"name\":\"Durga Sharma\",\"email\":\"durga_sharma@emard-trantow.example\",\"gender\":\"female\",\"status\":\"active\"},{\"id\":6129471,\"name\":\"Bhupati Kapoor\",\"email\":\"kapoor_bhupati@bailey.example\",\"gender\":\"female\",\"status\":\"active\"},{\"id\":6129469,\"name\":\"Adheesh Varma\",\"email\":\"adheesh_varma@bashirian.test\",\"gender\":\"female\",\"status\":\"active\"},{\"id\":6129468,\"name\":\"Gorakhnath Chattopadhyay\",\"email\":\"chattopadhyay_gorakhnath@kilback.example\",\"gender\":\"female\",\"status\":\"active\"},{\"id\":6129467,\"name\":\"Kalpana Bharadwaj DDS\",\"email\":\"kalpana_dds_bharadwaj@abernathy.test\",\"gender\":\"female\",\"status\":\"active\"},{\"id\":6129464,\"name\":\"The Hon. Dayaanidhi Namboothiri\",\"email\":\"dayaanidhi_hon_namboothiri_the@bernhard.test\",\"gender\":\"female\",\"status\":\"active\"},{\"id\":6129462,\"name\":\"Kama Pillai\",\"email\":\"kama_pillai@mcdermott-zieme.test\",\"gender\":\"female\",\"status\":\"active\"}]}\n\n"},{"result":{"nanos":28900,"millis":0.0289,"status":"passed"},"step":{"line":7,"prefix":"Then","index":4,"text":"status 200"}},{"result":{"nanos":65884200,"millis":65.8842,"status":"passed"},"step":{"line":8,"prefix":"*","index":5,"text":"print response"},"stepLog":"14:39:25.432 [print] {\n  \"meta\": {\n    \"pagination\": {\n      \"total\": 701,\n      \"pages\": 71,\n      \"page\": 1,\n      \"limit\": 10,\n      \"links\": {\n        \"previous\": null,\n        \"current\": \"https:\/\/gorest.co.in\/public\/v1\/users?page=1\",\n        \"next\": \"https:\/\/gorest.co.in\/public\/v1\/users?page=2\"\n      }\n    }\n  },\n  \"data\": [\n    {\n      \"id\": 6129714,\n      \"name\": \"Darshwana Adiga\",\n      \"email\": \"darshwana_adiga@walsh-blanda.test\",\n      \"gender\": \"female\",\n      \"status\": \"active\"\n    },\n    {\n      \"id\": 6129479,\n      \"name\": \"Gorakhanatha Nehru\",\n      \"email\": \"nehru_gorakhanatha@welch.test\",\n      \"gender\": \"female\",\n      \"status\": \"active\"\n    },\n    {\n      \"id\": 6129473,\n      \"name\": \"Kumuda Bandopadhyay\",\n      \"email\": \"bandopadhyay_kumuda@rice.example\",\n      \"gender\": \"female\",\n      \"status\": \"active\"\n    },\n    {\n      \"id\": 6129472,\n      \"name\": \"Durga Sharma\",\n      \"email\": \"durga_sharma@emard-trantow.example\",\n      \"gender\": \"female\",\n      \"status\": \"active\"\n    },\n    {\n      \"id\": 6129471,\n      \"name\": \"Bhupati Kapoor\",\n      \"email\": \"kapoor_bhupati@bailey.example\",\n      \"gender\": \"female\",\n      \"status\": \"active\"\n    },\n    {\n      \"id\": 6129469,\n      \"name\": \"Adheesh Varma\",\n      \"email\": \"adheesh_varma@bashirian.test\",\n      \"gender\": \"female\",\n      \"status\": \"active\"\n    },\n    {\n      \"id\": 6129468,\n      \"name\": \"Gorakhnath Chattopadhyay\",\n      \"email\": \"chattopadhyay_gorakhnath@kilback.example\",\n      \"gender\": \"female\",\n      \"status\": \"active\"\n    },\n    {\n      \"id\": 6129467,\n      \"name\": \"Kalpana Bharadwaj DDS\",\n      \"email\": \"kalpana_dds_bharadwaj@abernathy.test\",\n      \"gender\": \"female\",\n      \"status\": \"active\"\n    },\n    {\n      \"id\": 6129464,\n      \"name\": \"The Hon. Dayaanidhi Namboothiri\",\n      \"email\": \"dayaanidhi_hon_namboothiri_the@bernhard.test\",\n      \"gender\": \"female\",\n      \"status\": \"active\"\n    },\n    {\n      \"id\": 6129462,\n      \"name\": \"Kama Pillai\",\n      \"email\": \"kama_pillai@mcdermott-zieme.test\",\n      \"gender\": \"female\",\n      \"status\": \"active\"\n    }\n  ]\n}\n \n"},{"result":{"nanos":6097100,"millis":6.0971,"status":"passed"},"step":{"line":9,"prefix":"*","index":6,"text":"print response.data[0].id"},"stepLog":"14:39:25.439 [print] 6129714 \n"},{"result":{"nanos":1607200,"millis":1.6072,"status":"passed"},"step":{"line":10,"prefix":"*","index":7,"text":"print response.data[4].name"},"stepLog":"14:39:25.440 [print] Bhupati Kapoor \n"}],"executorName":"main","line":2,"name":"get all active users & some specific","description":"","durationMillis":1896.3942,"startTime":1706778563528,"failed":false,"refId":"[1:2]","endTime":1706778565440,"exampleIndex":-1},{"sectionIndex":1,"stepResults":[{"result":{"nanos":405100,"millis":0.4051,"status":"passed"},"step":{"line":14,"prefix":"*","index":0,"text":"def query = {status:'inactive', gender:'female'}"}},{"result":{"nanos":298900,"millis":0.2989,"status":"passed"},"step":{"line":15,"prefix":"Given","index":1,"text":"url \"https:\/\/gorest.co.in\/public\/v1\/users\""}},{"result":{"nanos":302200,"millis":0.3022,"status":"passed"},"step":{"line":16,"prefix":"And","index":2,"text":"params query"}},{"result":{"nanos":1115917400,"millis":1115.9174,"status":"passed"},"step":{"line":17,"prefix":"When","index":3,"text":"method GET"},"stepLog":"14:39:25.448 request:\n1 > GET https:\/\/gorest.co.in\/public\/v1\/users?gender=female&status=inactive\n1 > Host: gorest.co.in\n1 > Connection: Keep-Alive\n1 > User-Agent: Apache-HttpClient\/4.5.12 (Java\/17.0.9)\n1 > Accept-Encoding: gzip,deflate\n\n\n14:39:26.561 response time in milliseconds: 1113\n1 < 200\n1 < Date: Thu, 01 Feb 2024 09:09:24 GMT\n1 < Content-Type: application\/json; charset=utf-8\n1 < Transfer-Encoding: chunked\n1 < Connection: keep-alive\n1 < Cache-Control: max-age=0, private, must-revalidate\n1 < etag: W\/\"8c283292a83cf31e1f204d7fc9334ed3\"\n1 < referrer-policy: strict-origin-when-cross-origin\n1 < vary: Origin\n1 < x-content-type-options: nosniff\n1 < x-download-options: noopen\n1 < x-frame-options: SAMEORIGIN\n1 < x-permitted-cross-domain-policies: none\n1 < x-request-id: 36cfcd58-a460-4333-a09f-8990fceb73f3\n1 < x-runtime: 0.073132\n1 < x-xss-protection: 0\n1 < CF-Cache-Status: DYNAMIC\n1 < Report-To: {\"endpoints\":[{\"url\":\"https:\\\/\\\/a.nel.cloudflare.com\\\/report\\\/v3?s=o2HwdwdCAwVGv9hqvL2KwOU33fJF2gsMiCSUvwtw7ZotiNsHKkbFrUBEcE9ruqhGuO1Ytwkk%2FTh05CF5CVhyp9BYuMHef4BphssEuxeDLpOgb9oc9GL61%2BqdLiMnTHE%3D\"}],\"group\":\"cf-nel\",\"max_age\":604800}\n1 < NEL: {\"success_fraction\":0,\"report_to\":\"cf-nel\",\"max_age\":604800}\n1 < Server: cloudflare\n1 < CF-RAY: 84e90e2608f00212-CDG\n1 < alt-svc: h3=\":443\"; ma=86400\n{\"meta\":{\"pagination\":{\"total\":763,\"pages\":77,\"page\":1,\"limit\":10,\"links\":{\"previous\":null,\"current\":\"https:\/\/gorest.co.in\/public\/v1\/users?page=1\",\"next\":\"https:\/\/gorest.co.in\/public\/v1\/users?page=2\"}}},\"data\":[{\"id\":6129490,\"name\":\"Adhrit Agarwal\",\"email\":\"agarwal_adhrit@hoeger.example\",\"gender\":\"female\",\"status\":\"inactive\"},{\"id\":6129483,\"name\":\"Vasudeva Bhat JD\",\"email\":\"bhat_jd_vasudeva@lynch.example\",\"gender\":\"female\",\"status\":\"inactive\"},{\"id\":6129475,\"name\":\"Bhardwaj Ahuja\",\"email\":\"bhardwaj_ahuja@beer-ritchie.test\",\"gender\":\"female\",\"status\":\"inactive\"},{\"id\":6129474,\"name\":\"Nimit Rana VM\",\"email\":\"vm_rana_nimit@waelchi.test\",\"gender\":\"female\",\"status\":\"inactive\"},{\"id\":6129470,\"name\":\"The Hon. Himadri Menon\",\"email\":\"himadri_the_hon_menon@friesen.example\",\"gender\":\"female\",\"status\":\"inactive\"},{\"id\":6129463,\"name\":\"Chandraketu Mahajan\",\"email\":\"chandraketu_mahajan@morissette.test\",\"gender\":\"female\",\"status\":\"inactive\"},{\"id\":6129454,\"name\":\"Bhoj Mishra\",\"email\":\"bhoj_mishra@roberts.example\",\"gender\":\"female\",\"status\":\"inactive\"},{\"id\":6129453,\"name\":\"Devesh Talwar\",\"email\":\"devesh_talwar@cole.example\",\"gender\":\"female\",\"status\":\"inactive\"},{\"id\":6129449,\"name\":\"Charumati Malik\",\"email\":\"malik_charumati@heathcote.example\",\"gender\":\"female\",\"status\":\"inactive\"},{\"id\":6129448,\"name\":\"Miss Satyen Malik\",\"email\":\"malik_miss_satyen@okuneva.test\",\"gender\":\"female\",\"status\":\"inactive\"}]}\n\n"},{"result":{"nanos":22400,"millis":0.0224,"status":"passed"},"step":{"line":18,"prefix":"Then","index":4,"text":"status 200"}},{"result":{"nanos":600800,"millis":0.6008,"status":"passed"},"step":{"line":19,"prefix":"*","index":5,"text":"def jsonresponse = response"}},{"result":{"nanos":1573400,"millis":1.5734,"status":"passed"},"step":{"line":20,"prefix":"*","index":6,"text":"print jsonresponse"},"stepLog":"14:39:26.565 [print] {\n  \"meta\": {\n    \"pagination\": {\n      \"total\": 763,\n      \"pages\": 77,\n      \"page\": 1,\n      \"limit\": 10,\n      \"links\": {\n        \"previous\": null,\n        \"current\": \"https:\/\/gorest.co.in\/public\/v1\/users?page=1\",\n        \"next\": \"https:\/\/gorest.co.in\/public\/v1\/users?page=2\"\n      }\n    }\n  },\n  \"data\": [\n    {\n      \"id\": 6129490,\n      \"name\": \"Adhrit Agarwal\",\n      \"email\": \"agarwal_adhrit@hoeger.example\",\n      \"gender\": \"female\",\n      \"status\": \"inactive\"\n    },\n    {\n      \"id\": 6129483,\n      \"name\": \"Vasudeva Bhat JD\",\n      \"email\": \"bhat_jd_vasudeva@lynch.example\",\n      \"gender\": \"female\",\n      \"status\": \"inactive\"\n    },\n    {\n      \"id\": 6129475,\n      \"name\": \"Bhardwaj Ahuja\",\n      \"email\": \"bhardwaj_ahuja@beer-ritchie.test\",\n      \"gender\": \"female\",\n      \"status\": \"inactive\"\n    },\n    {\n      \"id\": 6129474,\n      \"name\": \"Nimit Rana VM\",\n      \"email\": \"vm_rana_nimit@waelchi.test\",\n      \"gender\": \"female\",\n      \"status\": \"inactive\"\n    },\n    {\n      \"id\": 6129470,\n      \"name\": \"The Hon. Himadri Menon\",\n      \"email\": \"himadri_the_hon_menon@friesen.example\",\n      \"gender\": \"female\",\n      \"status\": \"inactive\"\n    },\n    {\n      \"id\": 6129463,\n      \"name\": \"Chandraketu Mahajan\",\n      \"email\": \"chandraketu_mahajan@morissette.test\",\n      \"gender\": \"female\",\n      \"status\": \"inactive\"\n    },\n    {\n      \"id\": 6129454,\n      \"name\": \"Bhoj Mishra\",\n      \"email\": \"bhoj_mishra@roberts.example\",\n      \"gender\": \"female\",\n      \"status\": \"inactive\"\n    },\n    {\n      \"id\": 6129453,\n      \"name\": \"Devesh Talwar\",\n      \"email\": \"devesh_talwar@cole.example\",\n      \"gender\": \"female\",\n      \"status\": \"inactive\"\n    },\n    {\n      \"id\": 6129449,\n      \"name\": \"Charumati Malik\",\n      \"email\": \"malik_charumati@heathcote.example\",\n      \"gender\": \"female\",\n      \"status\": \"inactive\"\n    },\n    {\n      \"id\": 6129448,\n      \"name\": \"Miss Satyen Malik\",\n      \"email\": \"malik_miss_satyen@okuneva.test\",\n      \"gender\": \"female\",\n      \"status\": \"inactive\"\n    }\n  ]\n}\n \n"},{"result":{"nanos":1647700,"millis":1.6477,"status":"passed"},"step":{"line":21,"prefix":"*","index":7,"text":"print jsonresponse.data[0].id"},"stepLog":"14:39:26.567 [print] 6129490 \n"},{"result":{"nanos":1923600,"millis":1.9236,"status":"passed"},"step":{"line":22,"prefix":"*","index":8,"text":"print jsonresponse.data[4].name"},"stepLog":"14:39:26.569 [print] The Hon. Himadri Menon \n"},{"result":{"nanos":2043900,"millis":2.0439,"status":"passed"},"step":{"line":23,"prefix":"*","index":9,"text":"def usercount = jsonresponse.data.length"}},{"result":{"nanos":1230300,"millis":1.2303,"status":"passed"},"step":{"line":24,"prefix":"*","index":10,"text":"print usercount"},"stepLog":"14:39:26.572 [print] 10 \n"},{"result":{"nanos":10494300,"millis":10.4943,"status":"passed"},"step":{"line":25,"prefix":"*","index":11,"text":"match usercount == 10"}}],"executorName":"main","line":12,"name":"Get all the inactive users and users count","description":"","durationMillis":1136.46,"startTime":1706778565445,"failed":false,"refId":"[2:12]","endTime":1706778566583,"exampleIndex":-1}],"callDepth":0,"name":"Get api with query parameter","description":"","resultDate":"2024-02-01 02:39:26 pm","durationMillis":3032.8542,"passedCount":2}