{"failedCount":0,"prefixedPath":"src\/test\/java\/apitesting\/query_parameter.feature","packageQualifiedName":"src.test.java.apitesting.query_parameter","loopIndex":-1,"relativePath":"src\/test\/java\/apitesting\/query_parameter.feature","scenarioResults":[{"sectionIndex":0,"stepResults":[{"result":{"nanos":52214400,"millis":52.2144,"status":"passed"},"step":{"line":3,"prefix":"*","index":0,"text":"def query = {status:'active', gender:'female'}"}},{"result":{"nanos":88572200,"millis":88.5722,"status":"passed"},"step":{"line":4,"prefix":"Given","index":1,"text":"url \"https:\/\/gorest.co.in\/public\/v1\/users\""}},{"result":{"nanos":40796800,"millis":40.7968,"status":"passed"},"step":{"line":5,"prefix":"And","index":2,"text":"params query"}},{"result":{"nanos":1869186000,"millis":1869.186,"status":"passed"},"step":{"line":6,"prefix":"When","index":3,"text":"method GET"},"stepLog":"14:54:49.776 request:\n1 > GET https:\/\/gorest.co.in\/public\/v1\/users?gender=female&status=active\n1 > Host: gorest.co.in\n1 > Connection: Keep-Alive\n1 > User-Agent: Apache-HttpClient\/4.5.12 (Java\/17.0.9)\n1 > Accept-Encoding: gzip,deflate\n\n\n14:54:51.338 response time in milliseconds: 1557\n1 < 200\n1 < Date: Wed, 31 Jan 2024 09:24:49 GMT\n1 < Content-Type: application\/json; charset=utf-8\n1 < Transfer-Encoding: chunked\n1 < Connection: keep-alive\n1 < Cache-Control: max-age=0, private, must-revalidate\n1 < etag: W\/\"ad606f42bfdd320667ff41804a4223ed\"\n1 < referrer-policy: strict-origin-when-cross-origin\n1 < vary: Origin\n1 < x-content-type-options: nosniff\n1 < x-download-options: noopen\n1 < x-frame-options: SAMEORIGIN\n1 < x-permitted-cross-domain-policies: none\n1 < x-request-id: 825b5ca0-ae27-4be0-93eb-ed93070af7ca\n1 < x-runtime: 0.058837\n1 < x-xss-protection: 0\n1 < CF-Cache-Status: DYNAMIC\n1 < Report-To: {\"endpoints\":[{\"url\":\"https:\\\/\\\/a.nel.cloudflare.com\\\/report\\\/v3?s=ir16BLCZEVbducMSJ7mQNWCdCzMNoJC8E1HdjAykJQQw2ZgqSEUn5rzB0Uuq9HHJ5t%2BpiFPAn%2FUQKWPGCUiTJ9WyqX8xeeAwhbTW4HQiWjkVIrzG4RgIYjz%2F%2FH1XVlo%3D\"}],\"group\":\"cf-nel\",\"max_age\":604800}\n1 < NEL: {\"success_fraction\":0,\"report_to\":\"cf-nel\",\"max_age\":604800}\n1 < Server: cloudflare\n1 < CF-RAY: 84e0e7609cd5189e-MRS\n1 < alt-svc: h3=\":443\"; ma=86400\n{\"meta\":{\"pagination\":{\"total\":706,\"pages\":71,\"page\":1,\"limit\":10,\"links\":{\"previous\":null,\"current\":\"https:\/\/gorest.co.in\/public\/v1\/users?page=1\",\"next\":\"https:\/\/gorest.co.in\/public\/v1\/users?page=2\"}}},\"data\":[{\"id\":6129747,\"name\":\"Sanya Talwar\",\"email\":\"sanya_talwar@reichel.test\",\"gender\":\"female\",\"status\":\"active\"},{\"id\":6129744,\"name\":\"Kanishka Adiga\",\"email\":\"kanishka_adiga@dubuque-medhurst.example\",\"gender\":\"female\",\"status\":\"active\"},{\"id\":6129740,\"name\":\"Lai Agarwal\",\"email\":\"agarwal_lai@leffler-hermiston.example\",\"gender\":\"female\",\"status\":\"active\"},{\"id\":6129724,\"name\":\"Shobhana Saini\",\"email\":\"shobhana_saini@deckow.test\",\"gender\":\"female\",\"status\":\"active\"},{\"id\":6129714,\"name\":\"Darshwana Adiga\",\"email\":\"darshwana_adiga@walsh-blanda.test\",\"gender\":\"female\",\"status\":\"active\"},{\"id\":6129479,\"name\":\"Gorakhanatha Nehru\",\"email\":\"nehru_gorakhanatha@welch.test\",\"gender\":\"female\",\"status\":\"active\"},{\"id\":6129473,\"name\":\"Kumuda Bandopadhyay\",\"email\":\"bandopadhyay_kumuda@rice.example\",\"gender\":\"female\",\"status\":\"active\"},{\"id\":6129472,\"name\":\"Durga Sharma\",\"email\":\"durga_sharma@emard-trantow.example\",\"gender\":\"female\",\"status\":\"active\"},{\"id\":6129471,\"name\":\"Bhupati Kapoor\",\"email\":\"kapoor_bhupati@bailey.example\",\"gender\":\"female\",\"status\":\"active\"},{\"id\":6129469,\"name\":\"Adheesh Varma\",\"email\":\"adheesh_varma@bashirian.test\",\"gender\":\"female\",\"status\":\"active\"}]}\n\n"},{"result":{"nanos":24600,"millis":0.0246,"status":"passed"},"step":{"line":7,"prefix":"Then","index":4,"text":"status 200"}},{"result":{"nanos":69081500,"millis":69.0815,"status":"passed"},"step":{"line":8,"prefix":"*","index":5,"text":"print response"},"stepLog":"14:54:51.411 [print] {\n  \"meta\": {\n    \"pagination\": {\n      \"total\": 706,\n      \"pages\": 71,\n      \"page\": 1,\n      \"limit\": 10,\n      \"links\": {\n        \"previous\": null,\n        \"current\": \"https:\/\/gorest.co.in\/public\/v1\/users?page=1\",\n        \"next\": \"https:\/\/gorest.co.in\/public\/v1\/users?page=2\"\n      }\n    }\n  },\n  \"data\": [\n    {\n      \"id\": 6129747,\n      \"name\": \"Sanya Talwar\",\n      \"email\": \"sanya_talwar@reichel.test\",\n      \"gender\": \"female\",\n      \"status\": \"active\"\n    },\n    {\n      \"id\": 6129744,\n      \"name\": \"Kanishka Adiga\",\n      \"email\": \"kanishka_adiga@dubuque-medhurst.example\",\n      \"gender\": \"female\",\n      \"status\": \"active\"\n    },\n    {\n      \"id\": 6129740,\n      \"name\": \"Lai Agarwal\",\n      \"email\": \"agarwal_lai@leffler-hermiston.example\",\n      \"gender\": \"female\",\n      \"status\": \"active\"\n    },\n    {\n      \"id\": 6129724,\n      \"name\": \"Shobhana Saini\",\n      \"email\": \"shobhana_saini@deckow.test\",\n      \"gender\": \"female\",\n      \"status\": \"active\"\n    },\n    {\n      \"id\": 6129714,\n      \"name\": \"Darshwana Adiga\",\n      \"email\": \"darshwana_adiga@walsh-blanda.test\",\n      \"gender\": \"female\",\n      \"status\": \"active\"\n    },\n    {\n      \"id\": 6129479,\n      \"name\": \"Gorakhanatha Nehru\",\n      \"email\": \"nehru_gorakhanatha@welch.test\",\n      \"gender\": \"female\",\n      \"status\": \"active\"\n    },\n    {\n      \"id\": 6129473,\n      \"name\": \"Kumuda Bandopadhyay\",\n      \"email\": \"bandopadhyay_kumuda@rice.example\",\n      \"gender\": \"female\",\n      \"status\": \"active\"\n    },\n    {\n      \"id\": 6129472,\n      \"name\": \"Durga Sharma\",\n      \"email\": \"durga_sharma@emard-trantow.example\",\n      \"gender\": \"female\",\n      \"status\": \"active\"\n    },\n    {\n      \"id\": 6129471,\n      \"name\": \"Bhupati Kapoor\",\n      \"email\": \"kapoor_bhupati@bailey.example\",\n      \"gender\": \"female\",\n      \"status\": \"active\"\n    },\n    {\n      \"id\": 6129469,\n      \"name\": \"Adheesh Varma\",\n      \"email\": \"adheesh_varma@bashirian.test\",\n      \"gender\": \"female\",\n      \"status\": \"active\"\n    }\n  ]\n}\n \n"}],"executorName":"main","line":2,"name":"get all active users","description":"","durationMillis":2119.8755,"startTime":1706693089265,"failed":false,"refId":"[1:2]","endTime":1706693091412,"exampleIndex":-1}],"callDepth":0,"name":"Get api with query parameter","description":"","resultDate":"2024-01-31 02:54:51 pm","durationMillis":2119.8755,"passedCount":1}