{"failedCount":0,"prefixedPath":"src\/test\/java\/apitesting\/query_parameter.feature","packageQualifiedName":"src.test.java.apitesting.query_parameter","loopIndex":-1,"relativePath":"src\/test\/java\/apitesting\/query_parameter.feature","scenarioResults":[{"sectionIndex":0,"stepResults":[{"result":{"nanos":55382600,"millis":55.3826,"status":"passed"},"step":{"line":3,"prefix":"*","index":0,"text":"def query = {status:'active', gender:'female'}"}},{"result":{"nanos":76322900,"millis":76.3229,"status":"passed"},"step":{"line":4,"prefix":"Given","index":1,"text":"url \"https:\/\/gorest.co.in\/public\/v1\/users\""}},{"result":{"nanos":20616200,"millis":20.6162,"status":"passed"},"step":{"line":5,"prefix":"And","index":2,"text":"params query"}},{"result":{"nanos":1415973400,"millis":1415.9734,"status":"passed"},"step":{"line":6,"prefix":"When","index":3,"text":"method GET"},"stepLog":"16:28:40.733 request:\n1 > GET https:\/\/gorest.co.in\/public\/v1\/users?gender=female&status=active\n1 > Host: gorest.co.in\n1 > Connection: Keep-Alive\n1 > User-Agent: Apache-HttpClient\/4.5.12 (Java\/17.0.9)\n1 > Accept-Encoding: gzip,deflate\n\n\n16:28:41.933 response time in milliseconds: 1198\n1 < 200\n1 < Date: Wed, 31 Jan 2024 10:58:41 GMT\n1 < Content-Type: application\/json; charset=utf-8\n1 < Transfer-Encoding: chunked\n1 < Connection: keep-alive\n1 < Cache-Control: max-age=0, private, must-revalidate\n1 < etag: W\/\"ad606f42bfdd320667ff41804a4223ed\"\n1 < referrer-policy: strict-origin-when-cross-origin\n1 < vary: Origin\n1 < x-content-type-options: nosniff\n1 < x-download-options: noopen\n1 < x-frame-options: SAMEORIGIN\n1 < x-permitted-cross-domain-policies: none\n1 < x-request-id: d892b5a8-0b53-44e2-b6cc-c9da825fa07e\n1 < x-runtime: 0.067980\n1 < x-xss-protection: 0\n1 < CF-Cache-Status: DYNAMIC\n1 < Report-To: {\"endpoints\":[{\"url\":\"https:\\\/\\\/a.nel.cloudflare.com\\\/report\\\/v3?s=4FquP%2FYd7sjPe%2FHVAiSUO3yah9VlnkrSnjODoEqKOGBbrhutXkY%2BO%2B29uA0P6jUqK1pUNerxCDy6nPEsvVQt6QzthjPPvLhcCVhO4L%2Bbr%2BNrJprYSL5HcNLxvz%2Bz9sk%3D\"}],\"group\":\"cf-nel\",\"max_age\":604800}\n1 < NEL: {\"success_fraction\":0,\"report_to\":\"cf-nel\",\"max_age\":604800}\n1 < Server: cloudflare\n1 < CF-RAY: 84e170e079210dbf-MRS\n1 < alt-svc: h3=\":443\"; ma=86400\n{\"meta\":{\"pagination\":{\"total\":706,\"pages\":71,\"page\":1,\"limit\":10,\"links\":{\"previous\":null,\"current\":\"https:\/\/gorest.co.in\/public\/v1\/users?page=1\",\"next\":\"https:\/\/gorest.co.in\/public\/v1\/users?page=2\"}}},\"data\":[{\"id\":6129747,\"name\":\"Sanya Talwar\",\"email\":\"sanya_talwar@reichel.test\",\"gender\":\"female\",\"status\":\"active\"},{\"id\":6129744,\"name\":\"Kanishka Adiga\",\"email\":\"kanishka_adiga@dubuque-medhurst.example\",\"gender\":\"female\",\"status\":\"active\"},{\"id\":6129740,\"name\":\"Lai Agarwal\",\"email\":\"agarwal_lai@leffler-hermiston.example\",\"gender\":\"female\",\"status\":\"active\"},{\"id\":6129724,\"name\":\"Shobhana Saini\",\"email\":\"shobhana_saini@deckow.test\",\"gender\":\"female\",\"status\":\"active\"},{\"id\":6129714,\"name\":\"Darshwana Adiga\",\"email\":\"darshwana_adiga@walsh-blanda.test\",\"gender\":\"female\",\"status\":\"active\"},{\"id\":6129479,\"name\":\"Gorakhanatha Nehru\",\"email\":\"nehru_gorakhanatha@welch.test\",\"gender\":\"female\",\"status\":\"active\"},{\"id\":6129473,\"name\":\"Kumuda Bandopadhyay\",\"email\":\"bandopadhyay_kumuda@rice.example\",\"gender\":\"female\",\"status\":\"active\"},{\"id\":6129472,\"name\":\"Durga Sharma\",\"email\":\"durga_sharma@emard-trantow.example\",\"gender\":\"female\",\"status\":\"active\"},{\"id\":6129471,\"name\":\"Bhupati Kapoor\",\"email\":\"kapoor_bhupati@bailey.example\",\"gender\":\"female\",\"status\":\"active\"},{\"id\":6129469,\"name\":\"Adheesh Varma\",\"email\":\"adheesh_varma@bashirian.test\",\"gender\":\"female\",\"status\":\"active\"}]}\n\n"},{"result":{"nanos":27700,"millis":0.0277,"status":"passed"},"step":{"line":7,"prefix":"Then","index":4,"text":"status 200"}},{"result":{"nanos":44953500,"millis":44.9535,"status":"passed"},"step":{"line":8,"prefix":"*","index":5,"text":"print response"},"stepLog":"16:28:41.980 [print] {\n  \"meta\": {\n    \"pagination\": {\n      \"total\": 706,\n      \"pages\": 71,\n      \"page\": 1,\n      \"limit\": 10,\n      \"links\": {\n        \"previous\": null,\n        \"current\": \"https:\/\/gorest.co.in\/public\/v1\/users?page=1\",\n        \"next\": \"https:\/\/gorest.co.in\/public\/v1\/users?page=2\"\n      }\n    }\n  },\n  \"data\": [\n    {\n      \"id\": 6129747,\n      \"name\": \"Sanya Talwar\",\n      \"email\": \"sanya_talwar@reichel.test\",\n      \"gender\": \"female\",\n      \"status\": \"active\"\n    },\n    {\n      \"id\": 6129744,\n      \"name\": \"Kanishka Adiga\",\n      \"email\": \"kanishka_adiga@dubuque-medhurst.example\",\n      \"gender\": \"female\",\n      \"status\": \"active\"\n    },\n    {\n      \"id\": 6129740,\n      \"name\": \"Lai Agarwal\",\n      \"email\": \"agarwal_lai@leffler-hermiston.example\",\n      \"gender\": \"female\",\n      \"status\": \"active\"\n    },\n    {\n      \"id\": 6129724,\n      \"name\": \"Shobhana Saini\",\n      \"email\": \"shobhana_saini@deckow.test\",\n      \"gender\": \"female\",\n      \"status\": \"active\"\n    },\n    {\n      \"id\": 6129714,\n      \"name\": \"Darshwana Adiga\",\n      \"email\": \"darshwana_adiga@walsh-blanda.test\",\n      \"gender\": \"female\",\n      \"status\": \"active\"\n    },\n    {\n      \"id\": 6129479,\n      \"name\": \"Gorakhanatha Nehru\",\n      \"email\": \"nehru_gorakhanatha@welch.test\",\n      \"gender\": \"female\",\n      \"status\": \"active\"\n    },\n    {\n      \"id\": 6129473,\n      \"name\": \"Kumuda Bandopadhyay\",\n      \"email\": \"bandopadhyay_kumuda@rice.example\",\n      \"gender\": \"female\",\n      \"status\": \"active\"\n    },\n    {\n      \"id\": 6129472,\n      \"name\": \"Durga Sharma\",\n      \"email\": \"durga_sharma@emard-trantow.example\",\n      \"gender\": \"female\",\n      \"status\": \"active\"\n    },\n    {\n      \"id\": 6129471,\n      \"name\": \"Bhupati Kapoor\",\n      \"email\": \"kapoor_bhupati@bailey.example\",\n      \"gender\": \"female\",\n      \"status\": \"active\"\n    },\n    {\n      \"id\": 6129469,\n      \"name\": \"Adheesh Varma\",\n      \"email\": \"adheesh_varma@bashirian.test\",\n      \"gender\": \"female\",\n      \"status\": \"active\"\n    }\n  ]\n}\n \n"},{"result":{"nanos":4066100,"millis":4.0661,"status":"passed"},"step":{"line":9,"prefix":"*","index":6,"text":"print response.data[0].id"},"stepLog":"16:28:41.985 [print] 6129747 \n"},{"result":{"nanos":1108600,"millis":1.1086,"status":"passed"},"step":{"line":10,"prefix":"*","index":7,"text":"print response.data[4].name"},"stepLog":"16:28:41.986 [print] Darshwana Adiga \n"}],"executorName":"main","line":2,"name":"get all active users & some specific","description":"","durationMillis":1618.451,"startTime":1706698720354,"failed":false,"refId":"[1:2]","endTime":1706698721986,"exampleIndex":-1},{"sectionIndex":1,"stepResults":[{"result":{"nanos":322500,"millis":0.3225,"status":"passed"},"step":{"line":14,"prefix":"*","index":0,"text":"def query = {status:'inactive', gender:'female'}"}},{"result":{"nanos":176100,"millis":0.1761,"status":"passed"},"step":{"line":15,"prefix":"Given","index":1,"text":"url \"https:\/\/gorest.co.in\/public\/v1\/users\""}},{"result":{"nanos":168600,"millis":0.1686,"status":"passed"},"step":{"line":16,"prefix":"And","index":2,"text":"params query"}},{"result":{"nanos":1049456700,"millis":1049.4567,"status":"passed"},"step":{"line":17,"prefix":"When","index":3,"text":"method GET"},"stepLog":"16:28:41.993 request:\n1 > GET https:\/\/gorest.co.in\/public\/v1\/users?gender=female&status=inactive\n1 > Host: gorest.co.in\n1 > Connection: Keep-Alive\n1 > User-Agent: Apache-HttpClient\/4.5.12 (Java\/17.0.9)\n1 > Accept-Encoding: gzip,deflate\n\n\n16:28:43.041 response time in milliseconds: 1048\n1 < 200\n1 < Date: Wed, 31 Jan 2024 10:58:42 GMT\n1 < Content-Type: application\/json; charset=utf-8\n1 < Transfer-Encoding: chunked\n1 < Connection: keep-alive\n1 < Cache-Control: max-age=0, private, must-revalidate\n1 < etag: W\/\"eaea80137c44e69e8252d4f89c105633\"\n1 < referrer-policy: strict-origin-when-cross-origin\n1 < vary: Origin\n1 < x-content-type-options: nosniff\n1 < x-download-options: noopen\n1 < x-frame-options: SAMEORIGIN\n1 < x-permitted-cross-domain-policies: none\n1 < x-request-id: f6e51fbc-b3d5-49d0-873d-ad28ae1fd613\n1 < x-runtime: 0.056362\n1 < x-xss-protection: 0\n1 < CF-Cache-Status: DYNAMIC\n1 < Report-To: {\"endpoints\":[{\"url\":\"https:\\\/\\\/a.nel.cloudflare.com\\\/report\\\/v3?s=ofP68ggb3aWUHWZ9KkhvUf%2B5F26CzmARW7ftUsqJ4qemlvgZsrNutUZmMJpESiiXl6rdV8BEUVMchDj6LTymfDfzMXlUmVck42PAogbCVS4ZEvWLAiEzjQcYWdIoWjM%3D\"}],\"group\":\"cf-nel\",\"max_age\":604800}\n1 < NEL: {\"success_fraction\":0,\"report_to\":\"cf-nel\",\"max_age\":604800}\n1 < Server: cloudflare\n1 < CF-RAY: 84e170e77b975fb8-MRS\n1 < alt-svc: h3=\":443\"; ma=86400\n{\"meta\":{\"pagination\":{\"total\":774,\"pages\":78,\"page\":1,\"limit\":10,\"links\":{\"previous\":null,\"current\":\"https:\/\/gorest.co.in\/public\/v1\/users?page=1\",\"next\":\"https:\/\/gorest.co.in\/public\/v1\/users?page=2\"}}},\"data\":[{\"id\":6129748,\"name\":\"Ekdant Reddy DDS\",\"email\":\"dds_ekdant_reddy@botsford.example\",\"gender\":\"female\",\"status\":\"inactive\"},{\"id\":6129742,\"name\":\"Kailash Bandopadhyay\",\"email\":\"bandopadhyay_kailash@macgyver.test\",\"gender\":\"female\",\"status\":\"inactive\"},{\"id\":6129732,\"name\":\"Sumitra Khatri\",\"email\":\"sumitra_khatri@heller.example\",\"gender\":\"female\",\"status\":\"inactive\"},{\"id\":6129730,\"name\":\"Jyotis Bhattathiri\",\"email\":\"bhattathiri_jyotis@kris.example\",\"gender\":\"female\",\"status\":\"inactive\"},{\"id\":6129726,\"name\":\"Gati Mishra\",\"email\":\"mishra_gati@rosenbaum-upton.example\",\"gender\":\"female\",\"status\":\"inactive\"},{\"id\":6129725,\"name\":\"Dipesh Adiga V\",\"email\":\"adiga_v_dipesh@nienow.test\",\"gender\":\"female\",\"status\":\"inactive\"},{\"id\":6129723,\"name\":\"Shashi Khan DVM\",\"email\":\"dvm_shashi_khan@wilderman.example\",\"gender\":\"female\",\"status\":\"inactive\"},{\"id\":6129719,\"name\":\"Goutam Kapoor\",\"email\":\"goutam_kapoor@witting.example\",\"gender\":\"female\",\"status\":\"inactive\"},{\"id\":6129715,\"name\":\"Aryan Khan\",\"email\":\"aryan_khan@dare-botsford.example\",\"gender\":\"female\",\"status\":\"inactive\"},{\"id\":6129713,\"name\":\"Vaidehi Chaturvedi Sr.\",\"email\":\"sr_chaturvedi_vaidehi@nikolaus.test\",\"gender\":\"female\",\"status\":\"inactive\"}]}\n\n"},{"result":{"nanos":12200,"millis":0.0122,"status":"passed"},"step":{"line":18,"prefix":"Then","index":4,"text":"status 200"}},{"result":{"nanos":442900,"millis":0.4429,"status":"passed"},"step":{"line":19,"prefix":"*","index":5,"text":"def jsonresponse = response"}},{"result":{"nanos":1313000,"millis":1.313,"status":"passed"},"step":{"line":20,"prefix":"*","index":6,"text":"print jsonresponse"},"stepLog":"16:28:43.044 [print] {\n  \"meta\": {\n    \"pagination\": {\n      \"total\": 774,\n      \"pages\": 78,\n      \"page\": 1,\n      \"limit\": 10,\n      \"links\": {\n        \"previous\": null,\n        \"current\": \"https:\/\/gorest.co.in\/public\/v1\/users?page=1\",\n        \"next\": \"https:\/\/gorest.co.in\/public\/v1\/users?page=2\"\n      }\n    }\n  },\n  \"data\": [\n    {\n      \"id\": 6129748,\n      \"name\": \"Ekdant Reddy DDS\",\n      \"email\": \"dds_ekdant_reddy@botsford.example\",\n      \"gender\": \"female\",\n      \"status\": \"inactive\"\n    },\n    {\n      \"id\": 6129742,\n      \"name\": \"Kailash Bandopadhyay\",\n      \"email\": \"bandopadhyay_kailash@macgyver.test\",\n      \"gender\": \"female\",\n      \"status\": \"inactive\"\n    },\n    {\n      \"id\": 6129732,\n      \"name\": \"Sumitra Khatri\",\n      \"email\": \"sumitra_khatri@heller.example\",\n      \"gender\": \"female\",\n      \"status\": \"inactive\"\n    },\n    {\n      \"id\": 6129730,\n      \"name\": \"Jyotis Bhattathiri\",\n      \"email\": \"bhattathiri_jyotis@kris.example\",\n      \"gender\": \"female\",\n      \"status\": \"inactive\"\n    },\n    {\n      \"id\": 6129726,\n      \"name\": \"Gati Mishra\",\n      \"email\": \"mishra_gati@rosenbaum-upton.example\",\n      \"gender\": \"female\",\n      \"status\": \"inactive\"\n    },\n    {\n      \"id\": 6129725,\n      \"name\": \"Dipesh Adiga V\",\n      \"email\": \"adiga_v_dipesh@nienow.test\",\n      \"gender\": \"female\",\n      \"status\": \"inactive\"\n    },\n    {\n      \"id\": 6129723,\n      \"name\": \"Shashi Khan DVM\",\n      \"email\": \"dvm_shashi_khan@wilderman.example\",\n      \"gender\": \"female\",\n      \"status\": \"inactive\"\n    },\n    {\n      \"id\": 6129719,\n      \"name\": \"Goutam Kapoor\",\n      \"email\": \"goutam_kapoor@witting.example\",\n      \"gender\": \"female\",\n      \"status\": \"inactive\"\n    },\n    {\n      \"id\": 6129715,\n      \"name\": \"Aryan Khan\",\n      \"email\": \"aryan_khan@dare-botsford.example\",\n      \"gender\": \"female\",\n      \"status\": \"inactive\"\n    },\n    {\n      \"id\": 6129713,\n      \"name\": \"Vaidehi Chaturvedi Sr.\",\n      \"email\": \"sr_chaturvedi_vaidehi@nikolaus.test\",\n      \"gender\": \"female\",\n      \"status\": \"inactive\"\n    }\n  ]\n}\n \n"},{"result":{"nanos":910200,"millis":0.9102,"status":"passed"},"step":{"line":21,"prefix":"*","index":7,"text":"print jsonresponse.data[0].id"},"stepLog":"16:28:43.045 [print] 6129748 \n"},{"result":{"nanos":743100,"millis":0.7431,"status":"passed"},"step":{"line":22,"prefix":"*","index":8,"text":"print jsonresponse.data[4].name"},"stepLog":"16:28:43.045 [print] Gati Mishra \n"},{"result":{"nanos":679700,"millis":0.6797,"status":"passed"},"step":{"line":23,"prefix":"*","index":9,"text":"def usercount = jsonresponse.data.length"}},{"result":{"nanos":772900,"millis":0.7729,"status":"passed"},"step":{"line":24,"prefix":"*","index":10,"text":"print usercount"},"stepLog":"16:28:43.047 [print] 10 \n"}],"executorName":"main","line":12,"name":"Get all the inactive users and users count","description":"","durationMillis":1054.9979,"startTime":1706698721991,"failed":false,"refId":"[2:12]","endTime":1706698723047,"exampleIndex":-1}],"callDepth":0,"name":"Get api with query parameter","description":"","resultDate":"2024-01-31 04:28:43 pm","durationMillis":2673.4489,"passedCount":2}